Project2_Tue/transcript
# vsim -do {run -all} -c Top 
# ** Note: (vsim-3812) Design is being optimized...
# ** Warning: calc2_top.v(277): (vopt-2685) [TFMPC] - Too few port connections for 'priority1'.  Expected 41, found 40.
# ** Warning: top.sv(16): (vopt-2685) [TFMPC] - Too few port connections for 'DUT'.  Expected 30, found 26.
# ** Warning: top.sv(16): (vopt-2718) [TFMPC] - Missing connection for port 'scan_in'.
# ** Warning: top.sv(16): (vopt-2718) [TFMPC] - Missing connection for port 'b_clk'.
# ** Warning: top.sv(16): (vopt-2718) [TFMPC] - Missing connection for port 'a_clk'.
# ** Warning: top.sv(16): (vopt-2718) [TFMPC] - Missing connection for port 'scan_out'.
# ** Warning: classPackage.sv(357): (vopt-2240) Treating stand-alone use of function 'displayInputs' as an implicit VOID cast.
# ** Warning: classPackage.sv(383): (vopt-2240) Treating stand-alone use of function 'displayInputs' as an implicit VOID cast.
# ** Warning: classPackage.sv(409): (vopt-2240) Treating stand-alone use of function 'displayInputs' as an implicit VOID cast.
# ** Warning: classPackage.sv(435): (vopt-2240) Treating stand-alone use of function 'displayInputs' as an implicit VOID cast.
# ** Warning: classPackage.sv(304): (vopt-2240) Treating stand-alone use of function 'displayAll' as an implicit VOID cast.
# ** Warning: classPackage.sv(311): (vopt-2240) Treating stand-alone use of function 'displayAll' as an implicit VOID cast.
# ** Warning: classPackage.sv(318): (vopt-2240) Treating stand-alone use of function 'displayAll' as an implicit VOID cast.
# ** Warning: classPackage.sv(325): (vopt-2240) Treating stand-alone use of function 'displayAll' as an implicit VOID cast.
# ** Warning: classPackage.sv(749): (vopt-2240) Treating stand-alone use of function 'displayTagPort' as an implicit VOID cast.
# ** Warning: classPackage.sv(736): (vopt-2240) Treating stand-alone use of function 'displayTagPort' as an implicit VOID cast.
# ** Warning: classPackage.sv(717): (vopt-2240) Treating stand-alone use of function 'displayAll' as an implicit VOID cast.
# ** Warning: classPackage.sv(773): (vopt-2240) Treating stand-alone use of function 'displayAll' as an implicit VOID cast.
# ** Warning: classPackage.sv(882): (vopt-2240) Treating stand-alone use of function 'randomize' as an implicit VOID cast.
# ** Warning: classPackage.sv(884): (vopt-2240) Treating stand-alone use of function 'displayInputs' as an implicit VOID cast.
# ** Warning: classPackage.sv(898): (vopt-2240) Treating stand-alone use of function 'randomize' as an implicit VOID cast.
# ** Warning: classPackage.sv(899): (vopt-2240) Treating stand-alone use of function 'displayInputs' as an implicit VOID cast.
# ** Warning: classPackage.sv(914): (vopt-2240) Treating stand-alone use of function 'randomize' as an implicit VOID cast.
# ** Warning: classPackage.sv(915): (vopt-2240) Treating stand-alone use of function 'displayInputs' as an implicit VOID cast.
# ** Warning: classPackage.sv(929): (vopt-2240) Treating stand-alone use of function 'randomize' as an implicit VOID cast.
# ** Warning: classPackage.sv(930): (vopt-2240) Treating stand-alone use of function 'displayInputs' as an implicit VOID cast.
# ** Warning: classPackage.sv(938): (vopt-2240) Treating stand-alone use of function 'displayCoverage' as an implicit VOID cast.
# ** Warning: classPackage.sv(37): (vopt-2250) Function "displayInputs" has no return value assignment.
# ** Warning: classPackage.sv(41): (vopt-2250) Function "displayTagPort" has no return value assignment.
# ** Warning: classPackage.sv(45): (vopt-2250) Function "displayAll" has no return value assignment.
# ** Warning: classPackage.sv(835): (vopt-2250) Function "displayCoverage" has no return value assignment.
# //  Questa Sim-64
# //  Version 10.1e linux_x86_64 Jun 11 2013
# //
# //  Copyright 1991-2013 Mentor Graphics Corporation
# //  All Rights Reserved.
# //
# //  THIS WORK CONTAINS TRADE SECRET AND PROPRIETARY INFORMATION
# //  WHICH IS THE PROPERTY OF MENTOR GRAPHICS CORPORATION OR ITS
# //  LICENSORS AND IS SUBJECT TO LICENSE TERMS.
# //
# Loading sv_std.std
# Loading work.Top(fast)
# Loading work.dut_IF(fast)
# Loading work.calc2_top(fast)
# Loading work.priority(fast)
# Loading work.classes(fast)
# ** Warning: (vsim-PLI-3691) classPackage.sv(846): Expected a system task, not a system function '$fgets'.
#         Region: /classes::Generator::run
# ** Warning: (vsim-PLI-3691) classPackage.sv(851): Expected a system task, not a system function '$fgets'.
#         Region: /classes::Generator::run
# Loading work.test(fast)
# ** Warning: (vsim-8441) classPackage.sv(351): Clocking block output IF.cb.req1_cmd_in is not legal in this
# or another expression.
#         Region: /classes
# ** Warning: (vsim-8441) classPackage.sv(352): Clocking block output IF.cb.req1_data_in is not legal in this
# or another expression.
#         Region: /classes
# ** Warning: (vsim-8441) classPackage.sv(343): Clocking block output IF.cb.req1_tag_in is not legal in this
# or another expression.
#         Region: /classes
# ** Warning: (vsim-8441) classPackage.sv(377): Clocking block output IF.cb.req2_cmd_in is not legal in this
# or another expression.
#         Region: /classes
# ** Warning: (vsim-8441) classPackage.sv(378): Clocking block output IF.cb.req2_data_in is not legal in this
# or another expression.
#         Region: /classes
# ** Warning: (vsim-8441) classPackage.sv(369): Clocking block output IF.cb.req2_tag_in is not legal in this
# or another expression.
#         Region: /classes
# ** Warning: (vsim-8441) classPackage.sv(402): Clocking block output IF.cb.req3_cmd_in is not legal in this
# or another expression.
#         Region: /classes
# ** Warning: (vsim-8441) classPackage.sv(403): Clocking block output IF.cb.req3_data_in is not legal in this
# or another expression.
#         Region: /classes
# ** Warning: (vsim-8441) classPackage.sv(394): Clocking block output IF.cb.req3_tag_in is not legal in this
# or another expression.
#         Region: /classes
# ** Warning: (vsim-8441) classPackage.sv(429): Clocking block output IF.cb.req4_cmd_in is not legal in this
# or another expression.
#         Region: /classes
# ** Warning: (vsim-8441) classPackage.sv(430): Clocking block output IF.cb.req4_data_in is not legal in this
# or another expression.
#         Region: /classes
# ** Warning: (vsim-8441) classPackage.sv(421): Clocking block output IF.cb.req4_tag_in is not legal in this
# or another expression.
#         Region: /classes
# ** Warning: (vsim-3017) top.sv(16): [TFMPC] - Too few port connections. Expected 30, found 29.
#         Region: /Top/DUT
# ** Warning: (vsim-3722) top.sv(16): [TFMPC] - Missing connection for port 'scan_in'.
# run -all 
# Top is running
# T: 0 [Monitor] starting...
# T: 0 [Monitor] watching port one
# T: 0 [Monitor] watching port Two
# T: 0 [Driver] starting...
# T: 0 [Generator] Running 1 random scenerio
# T: 0 [Generator] Making Test # 0
# T: 0 [Transaction] port: 00 cmd: 0001 data_in_1: 25 data_in_2: 12 tag_in: 11
# T: 0 [Transaction] port: 01 cmd: 0010 data_in_1: 30 data_in_2: 14 tag_in: 11
# T: 0 [Transaction] port: 10 cmd: 0001 data_in_1: 30 data_in_2: 21 tag_in: 11
# T: 0 [Transaction] port: 10 cmd: 0101 data_in_1: 70 data_in_2: 66 tag_in: 10
# T: 0 [Transaction] port: 11 cmd: 0110 data_in_1: 8 data_in_2: 7 tag_in: 11
# T: 0 [Transaction] port: 11 cmd: 0101 data_in_1: 3 data_in_2: 4 tag_in: 10
# Current coverage is 0.00
# [Scoreboard] cmd: 1 data1: 25 data2: 12
# T: 0 [Scoreboard] expected answer 37
# [Scoreboard] cmd: 2 data1: 30 data2: 14
# T: 0 [Scoreboard] expected answer 16
# [Scoreboard] cmd: 1 data1: 30 data2: 21
# T: 0 [Scoreboard] expected answer 51
# [Scoreboard] cmd: 5 data1: 70 data2: 66
# T: 0 [Scoreboard] expected answer 0
# [Scoreboard] cmd: 6 data1: 8 data2: 7
# T: 0 [Scoreboard] expected answer 0
# [Scoreboard] cmd: 5 data1: 3 data2: 4
# T: 0 [Scoreboard] expected answer 48
# T: 0 [Checker] Recieved transaction from Scoreboard
# T: 0 [Transaction] port: 00 tag_out: 11
# T: 0 [Checker] Recieved transaction from Scoreboard
# T: 0 [Transaction] port: 01 tag_out: 11
# T: 0 [Checker] Recieved transaction from Scoreboard
# T: 0 [Transaction] port: 10 tag_out: 11
# T: 0 [Checker] Recieved transaction from Scoreboard
# T: 0 [Transaction] port: 10 tag_out: 10
# T: 0 [Checker] Recieved transaction from Scoreboard
# T: 0 [Transaction] port: 11 tag_out: 11
# T: 0 [Checker] Recieved transaction from Scoreboard
# T: 0 [Transaction] port: 11 tag_out: 10
# T: 0 [Driver] Driver Reseting DUT
# T: 0 [Monitor] watching port Two
# T: 0 [Monitor] watching port one
# T: 350 [Driver] receiving transaction from Generator
# T: 350 [Driver] port: 00 cmd: 0001 Data1: 25 Data2: 12 Tag: 11
# T: 350 [Driver] receiving transaction from Generator
# T: 350 [Driver] port: 01 cmd: 0010 Data1: 30 Data2: 14 Tag: 11
# T: 350 [Driver] receiving transaction from Generator
# T: 350 [Driver] port: 10 cmd: 0001 Data1: 30 Data2: 21 Tag: 11
# T: 350 [Driver] receiving transaction from Generator
# T: 350 [Driver] port: 10 cmd: 0101 Data1: 70 Data2: 66 Tag: 10
# T: 350 [Driver] receiving transaction from Generator
# T: 350 [Driver] port: 11 cmd: 0110 Data1: 8 Data2: 7 Tag: 11
# T: 350 [Driver] receiving transaction from Generator
# T: 350 [Driver] port: 11 cmd: 0101 Data1: 3 Data2: 4 Tag: 10
# T: 450 [Driver] Driving set of commands
# T: 450 [Monitor] seeing new transaction on port 4 with tag: 3
# T: 450 [Monitor] seeing new transaction on port Two with Tag : 3
# T: 450 [Monitor] seeing new transaction on port Tag total trans: 3
# T: 550 [Driver] LOOP
# T: 650 [Transaction] port: 11 cmd: 0110 data_in_1: 8 data_in_2: 7 tag_in: 11
# T: 650 [Monitor] seeing new transaction on port R
# T: 650 [Transaction] port: 10 cmd: 0001 data_in_1: 30 data_in_2: 21 tag_in: 11
# T: 650 [Transaction] port: 01 cmd: 0010 data_in_1: 30 data_in_2: 14 tag_in: 11
# T: 650 [Monitor] watching port Two
# T: 650 [Transaction] port: 00 cmd: 0001 data_in_1: 25 data_in_2: 12 tag_in: 11
# T: 650 [Monitor] watching port one
# T: 650 [Driver] Driving set of commands
# T: 650 [Monitor] seeing new transaction on port 4 with tag: 2
# T: 750 [Driver] LOOP
# T: 850 [Transaction] port: 11 cmd: 0101 data_in_1: 3 data_in_2: 4 tag_in: 10
# T: 850 [Monitor] seeing new transaction on port R
# T: 850 [Transaction] port: 10 cmd: 0101 data_in_1: 70 data_in_2: 66 tag_in: 10
# T: 850 [Monitor]Port Four Response Asserted 1
# T: 850 [Monitor] received response on port 4
# T: 850 [Monitor]Port One Response Asserted 1
# T: 850 [Driver] Driving set of commands
# T: 850 [Checker] Recieved transaction from Monitor
# T: 850 [Transaction] port: 11 tag_out: 11
# T: 850 [Checker] Recieved transaction from Monitor
# T: 850 [Transaction] port: 00 tag_out: 11
# T: 950 [Monitor]Port Two Response Asserted 1
# T: 950 [Monitor]Port Two: ERROR Response Recieved with No matching command
# T: 950 [Driver] LOOP
# T: 1050 [Monitor]Port Three Response Asserted 1
# T: 1050 [Monitor] received response on port 3
# T: 1050 [Driver] Driving set of commands
# T: 1050 [Checker] Recieved transaction from Monitor
# T: 1050 [Transaction] port: 10 tag_out: 11
# T: 1150 [Monitor]Port One Response Asserted 1
# T: 1150 [Driver] LOOP
# T: 1150 [Checker] Recieved transaction from Monitor
# T: 1150 [Transaction] port: 01 tag_out: 11
# T: 1250 [Monitor]Port Two Response Asserted 1
# T: 1250 [Monitor]Port Two: ERROR Response Recieved with No matching command
# T: 1550 [Monitor]Port Four Response Asserted 2
# T: 1550 [Monitor] received response on port 4
# T: 1550 [Checker] Recieved transaction from Monitor
# T: 1550 [Transaction] port: 11 tag_out: 10
# T: 1650 [Monitor]Port Three Response Asserted 2
# T: 1650 [Monitor] received response on port 3
# T: 1650 [Checker] Recieved transaction from Monitor
# T: 1650 [Transaction] port: 10 tag_out: 10
# T: 2150 [Driver] Drive done asserted
# [Checker] Transactions from scoreboard seen : 6 
# [Checker] Transactions from monitor seen : 6 
# [Checker] Running Comparison  : 6 
# [Checker] Monitor Transaction recieved:
# T: 2150 [Transaction] port: 11 cmd: 0110 data_in_1: 8 data_in_2: 7 tag_in: 11 , resp: 01  tag_out: 3 data_out: 00000000000000000000000000000000 ,
# T: 2150 [Checker] Comparing with Scoreboard reference:
# T: 2150 [Transaction] port: 11 cmd: 0110 data_in_1: 8 data_in_2: 7 tag_in: 11 , resp: xx  tag_out: 3 data_out: 00000000000000000000000000000000 ,
# T: 2150 [Checker] CORRECT, port  3 with tag 3 data is 0 should be 0
# [Checker] Monitor Transaction recieved:
# T: 2150 [Transaction] port: 00 cmd: 0001 data_in_1: 25 data_in_2: 12 tag_in: 11 , resp: 01  tag_out: 3 data_out: 00000000000000000000000000011000 ,
# T: 2150 [Checker] Comparing with Scoreboard reference:
# T: 2150 [Transaction] port: 00 cmd: 0001 data_in_1: 25 data_in_2: 12 tag_in: 11 , resp: xx  tag_out: 3 data_out: 00000000000000000000000000100101 ,
# T: 2150 [Checker]ERROR, port 0 with tag 3 data is 24 should be 37
# [Checker] Monitor Transaction recieved:
# T: 2150 [Transaction] port: 10 cmd: 0001 data_in_1: 30 data_in_2: 21 tag_in: 11 , resp: 01  tag_out: 3 data_out: 00000000000000000000000x00101010 ,
# T: 2150 [Checker] Comparing with Scoreboard reference:
# T: 2150 [Transaction] port: 10 cmd: 0001 data_in_1: 30 data_in_2: 21 tag_in: 11 , resp: xx  tag_out: 3 data_out: 00000000000000000000000000110011 ,
# T: 2150 [Checker]ERROR, port 2 with tag 3 data is X should be 51
# [Checker] Monitor Transaction recieved:
# T: 2150 [Transaction] port: 01 cmd: 0010 data_in_1: 30 data_in_2: 14 tag_in: 11 , resp: 01  tag_out: 3 data_out: 00000000000000000000000000011000 ,
# T: 2150 [Checker] Comparing with Scoreboard reference:
# T: 2150 [Transaction] port: 01 cmd: 0010 data_in_1: 30 data_in_2: 14 tag_in: 11 , resp: xx  tag_out: 3 data_out: 00000000000000000000000000010000 ,
# T: 2150 [Checker]ERROR, port 1 with tag 3 data is 24 should be 16
# [Checker] Monitor Transaction recieved:
# T: 2150 [Transaction] port: 11 cmd: 0101 data_in_1: 3 data_in_2: 4 tag_in: 10 , resp: 10  tag_out: 2 data_out: 00000000000000000000000000000000 ,
# T: 2150 [Checker] Comparing with Scoreboard reference:
# T: 2150 [Transaction] port: 11 cmd: 0101 data_in_1: 3 data_in_2: 4 tag_in: 10 , resp: xx  tag_out: 2 data_out: 00000000000000000000000000110000 ,
# T: 2150 [Checker]ERROR, port 3 with tag 2 data is 0 should be 48
# [Checker] Monitor Transaction recieved:
# T: 2150 [Transaction] port: 10 cmd: 0101 data_in_1: 70 data_in_2: 66 tag_in: 10 , resp: 10  tag_out: 2 data_out: 00000000000000000000000000000000 ,
# T: 2150 [Checker] Comparing with Scoreboard reference:
# T: 2150 [Transaction] port: 10 cmd: 0101 data_in_1: 70 data_in_2: 66 tag_in: 10 , resp: xx  tag_out: 2 data_out: 00000000000000000000000000000000 ,
# T: 2150 [Checker] CORRECT, port  2 with tag 2 data is 0 should be 0
# T: 2150 [Generator] Making Test # 1
# T: 2150 [Transaction] port: 00 cmd: 0101 data_in_1: 43 data_in_2: 32 tag_in: 11
# T: 2150 [Transaction] port: 01 cmd: 0001 data_in_1: 56 data_in_2: 75 tag_in: 11
# T: 2150 [Transaction] port: 01 cmd: 0110 data_in_1: 25 data_in_2: 80 tag_in: 10
# T: 2150 [Transaction] port: 10 cmd: 0101 data_in_1: 93 data_in_2: 85 tag_in: 11
# T: 2150 [Transaction] port: 10 cmd: 0010 data_in_1: 40 data_in_2: 26 tag_in: 10
# T: 2150 [Transaction] port: 11 cmd: 0101 data_in_1: 69 data_in_2: 52 tag_in: 11
# T: 2150 [Transaction] port: 11 cmd: 0010 data_in_1: 36 data_in_2: 84 tag_in: 10
# Current coverage is 0.00
# T: 2150 [Driver] Driver Reseting DUT
# [Scoreboard] cmd: 5 data1: 43 data2: 32
# T: 2150 [Scoreboard] expected answer 0
# [Scoreboard] cmd: 1 data1: 56 data2: 75
# T: 2150 [Scoreboard] expected answer 131
# [Scoreboard] cmd: 6 data1: 25 data2: 80
# T: 2150 [Scoreboard] expected answer 0
# [Scoreboard] cmd: 5 data1: 93 data2: 85
# T: 2150 [Scoreboard] expected answer 0
# [Scoreboard] cmd: 2 data1: 40 data2: 26
# T: 2150 [Scoreboard] expected answer 14
# [Scoreboard] cmd: 5 data1: 69 data2: 52
# T: 2150 [Scoreboard] expected answer 0
# [Scoreboard] cmd: 2 data1: 36 data2: 84
# [Scoreboard] can't subtract 84 from 36
# T: 2150 [Checker] Recieved transaction from Scoreboard
# T: 2150 [Transaction] port: 00 tag_out: 11
# T: 2150 [Checker] Recieved transaction from Scoreboard
# T: 2150 [Transaction] port: 01 tag_out: 11
# T: 2150 [Checker] Recieved transaction from Scoreboard
# T: 2150 [Transaction] port: 01 tag_out: 10
# T: 2150 [Checker] Recieved transaction from Scoreboard
# T: 2150 [Transaction] port: 10 tag_out: 11
# T: 2150 [Checker] Recieved transaction from Scoreboard
# T: 2150 [Transaction] port: 10 tag_out: 10
# T: 2150 [Checker] Recieved transaction from Scoreboard
# T: 2150 [Transaction] port: 11 tag_out: 11
# T: 2150 [Checker] Recieved transaction from Scoreboard
# T: 2150 [Transaction] port: 11 tag_out: 10
# T: 2150 [Monitor] watching port Two
# T: 2150 [Monitor] watching port one
# T: 2500 [Driver] receiving transaction from Generator
# T: 2500 [Driver] port: 00 cmd: 0101 Data1: 43 Data2: 32 Tag: 11
# T: 2500 [Driver] receiving transaction from Generator
# T: 2500 [Driver] port: 01 cmd: 0001 Data1: 56 Data2: 75 Tag: 11
# T: 2500 [Driver] receiving transaction from Generator
# T: 2500 [Driver] port: 01 cmd: 0110 Data1: 25 Data2: 80 Tag: 10
# T: 2500 [Driver] receiving transaction from Generator
# T: 2500 [Driver] port: 10 cmd: 0101 Data1: 93 Data2: 85 Tag: 11
# T: 2500 [Driver] receiving transaction from Generator
# T: 2500 [Driver] port: 10 cmd: 0010 Data1: 40 Data2: 26 Tag: 10
# T: 2500 [Driver] receiving transaction from Generator
# T: 2500 [Driver] port: 11 cmd: 0101 Data1: 69 Data2: 52 Tag: 11
# T: 2500 [Driver] receiving transaction from Generator
# T: 2500 [Driver] port: 11 cmd: 0010 Data1: 36 Data2: 84 Tag: 10
# T: 2550 [Driver] Driving set of commands
# T: 2550 [Monitor] seeing new transaction on port 4 with tag: 3
# T: 2550 [Monitor] seeing new transaction on port Two with Tag : 3
# T: 2550 [Monitor] seeing new transaction on port Tag total trans: 3
# T: 2650 [Driver] LOOP
# T: 2750 [Transaction] port: 11 cmd: 0101 data_in_1: 69 data_in_2: 52 tag_in: 11
# T: 2750 [Monitor] seeing new transaction on port R
# T: 2750 [Transaction] port: 10 cmd: 0101 data_in_1: 93 data_in_2: 85 tag_in: 11
# T: 2750 [Transaction] port: 01 cmd: 0001 data_in_1: 56 data_in_2: 75 tag_in: 11
# T: 2750 [Monitor] watching port Two
# T: 2750 [Transaction] port: 00 cmd: 0101 data_in_1: 43 data_in_2: 32 tag_in: 11
# T: 2750 [Monitor] watching port one
# T: 2750 [Driver] Driving set of commands
# T: 2750 [Monitor] seeing new transaction on port 4 with tag: 2
# T: 2750 [Monitor] seeing new transaction on port Two with Tag : 2
# T: 2850 [Driver] LOOP
# T: 2950 [Transaction] port: 11 cmd: 0010 data_in_1: 36 data_in_2: 84 tag_in: 10
# T: 2950 [Monitor] seeing new transaction on port R
# T: 2950 [Transaction] port: 10 cmd: 0010 data_in_1: 40 data_in_2: 26 tag_in: 10
# T: 2950 [Transaction] port: 01 cmd: 0110 data_in_1: 25 data_in_2: 80 tag_in: 10
# T: 2950 [Monitor] watching port Two
# T: 2950 [Monitor]Port Two Response Asserted 1
# T: 2950 [Monitor]Port Two: ERROR Response Recieved with No matching command
# T: 2950 [Monitor]Port One Response Asserted 1
# T: 2950 [Driver] Driving set of commands
# T: 2950 [Checker] Recieved transaction from Monitor
# T: 2950 [Transaction] port: 00 tag_out: 11
# T: 3050 [Monitor]Port Three Response Asserted 1
# T: 3050 [Monitor] received response on port 3
# T: 3050 [Driver] LOOP
# T: 3050 [Checker] Recieved transaction from Monitor
# T: 3050 [Transaction] port: 10 tag_out: 11
# T: 3150 [Monitor]Port Four Response Asserted 1
# T: 3150 [Monitor] received response on port 4
# T: 3150 [Driver] Driving set of commands
# T: 3150 [Checker] Recieved transaction from Monitor
# T: 3150 [Transaction] port: 11 tag_out: 11
# T: 3250 [Monitor]Port Three Response Asserted 2
# T: 3250 [Monitor] received response on port 3
# T: 3250 [Monitor]Port Two Response Asserted 2
# T: 3250 [Monitor]Port Two: ERROR Response Recieved with No matching command
# T: 3250 [Monitor]Port One Response Asserted 1
# T: 3250 [Driver] LOOP
# T: 3250 [Checker] Recieved transaction from Monitor
# T: 3250 [Transaction] port: 10 tag_out: 10
# T: 3250 [Checker] Recieved transaction from Monitor
# T: 3250 [Transaction] port: 01 tag_out: 11
# T: 3350 [Monitor]Port Four Response Asserted 2
# T: 3350 [Monitor] received response on port 4
# T: 3350 [Monitor]Port Three Response Asserted 1
# T: 3350 [Monitor]Port Two: ERROR Response Recieved with No matching command
# T: 3350 [Checker] Recieved transaction from Monitor
# T: 3350 [Transaction] port: 11 tag_out: 10
# T: 3450 [Monitor]Port Four Response Asserted 1
# T: 3450 [Monitor]Port Two: ERROR Response Recieved with No matching command
# T: 3450 [Monitor]Port Three Response Asserted 2
# T: 3450 [Monitor]Port Two: ERROR Response Recieved with No matching command
# T: 3550 [Monitor]Port Four Response Asserted 2
# T: 3550 [Monitor]Port Two: ERROR Response Recieved with No matching command
# T: 3550 [Monitor]Port One Response Asserted 1
# T: 3550 [Monitor]Port One: ERROR Response Recieved with No matching command
# T: 3650 [Monitor]Port Two Response Asserted 1
# T: 3650 [Monitor]Port Two: ERROR Response Recieved with No matching command
# T: 3750 [Monitor]Port Two Response Asserted 2
# T: 3750 [Monitor]Port Two: ERROR Response Recieved with No matching command
# T: 3750 [Monitor]Port One Response Asserted 1
# T: 3750 [Monitor]Port One: ERROR Response Recieved with No matching command
# T: 4250 [Driver] Drive done asserted
# T: 4250 [Monitor]Port One Commands not responded to: 
# T: 4250 [Transaction] port: 01 cmd: 0110 data_in_1: 25 data_in_2: 80 tag_in: 10 , resp: xx  tag_out: x data_out: xxxxxxxxxxxxxxxxxxxxxxxxxxxxxxxx ,
# [Checker] Transactions from scoreboard seen : 7 
# [Checker] Transactions from monitor seen : 6 
# [Checker] Running Comparison  : 6 
# [Checker] Monitor Transaction recieved:
# T: 4250 [Transaction] port: 00 cmd: 0101 data_in_1: 43 data_in_2: 32 tag_in: 11 , resp: 01  tag_out: 3 data_out: 00000000000000000000000000100000 ,
# T: 4250 [Checker] Comparing with Scoreboard reference:
# T: 4250 [Transaction] port: 00 cmd: 0101 data_in_1: 43 data_in_2: 32 tag_in: 11 , resp: xx  tag_out: 3 data_out: 00000000000000000000000000000000 ,
# T: 4250 [Checker]ERROR, port 0 with tag 3 data is 32 should be 0
# [Checker] Monitor Transaction recieved:
# T: 4250 [Transaction] port: 10 cmd: 0101 data_in_1: 93 data_in_2: 85 tag_in: 11 , resp: 01  tag_out: 3 data_out: 00001010101000000000000000000000 ,
# T: 4250 [Checker] Comparing with Scoreboard reference:
# T: 4250 [Transaction] port: 10 cmd: 0101 data_in_1: 93 data_in_2: 85 tag_in: 11 , resp: xx  tag_out: 3 data_out: 00000000000000000000000000000000 ,
# T: 4250 [Checker]ERROR, port 2 with tag 3 data is 178257920 should be 0
# [Checker] Monitor Transaction recieved:
# T: 4250 [Transaction] port: 11 cmd: 0101 data_in_1: 69 data_in_2: 52 tag_in: 11 , resp: 01  tag_out: 3 data_out: 00000011010000000000000000000000 ,
# T: 4250 [Checker] Comparing with Scoreboard reference:
# T: 4250 [Transaction] port: 11 cmd: 0101 data_in_1: 69 data_in_2: 52 tag_in: 11 , resp: xx  tag_out: 3 data_out: 00000000000000000000000000000000 ,
# T: 4250 [Checker]ERROR, port 3 with tag 3 data is 54525952 should be 0
# [Checker] Monitor Transaction recieved:
# T: 4250 [Transaction] port: 10 cmd: 0010 data_in_1: 40 data_in_2: 26 tag_in: 10 , resp: 10  tag_out: 2 data_out: 00000000000000000000000000000000 ,
# T: 4250 [Checker] Comparing with Scoreboard reference:
# T: 4250 [Transaction] port: 10 cmd: 0010 data_in_1: 40 data_in_2: 26 tag_in: 10 , resp: xx  tag_out: 2 data_out: 00000000000000000000000000001110 ,
# T: 4250 [Checker]ERROR, port 2 with tag 2 data is 0 should be 14
# [Checker] Monitor Transaction recieved:
# T: 4250 [Transaction] port: 01 cmd: 0001 data_in_1: 56 data_in_2: 75 tag_in: 11 , resp: 01  tag_out: 3 data_out: 00000000000000000000000000100000 ,
# T: 4250 [Checker] Comparing with Scoreboard reference:
# T: 4250 [Transaction] port: 01 cmd: 0001 data_in_1: 56 data_in_2: 75 tag_in: 11 , resp: xx  tag_out: 3 data_out: 00000000000000000000000010000011 ,
# T: 4250 [Checker]ERROR, port 1 with tag 3 data is 32 should be 131
# [Checker] Monitor Transaction recieved:
# T: 4250 [Transaction] port: 11 cmd: 0010 data_in_1: 36 data_in_2: 84 tag_in: 10 , resp: 10  tag_out: 2 data_out: 00000000000000000000000000000000 ,
# T: 4250 [Checker] Comparing with Scoreboard reference:
# T: 4250 [Transaction] port: 11 cmd: 0010 data_in_1: 36 data_in_2: 84 tag_in: 10 , resp: xx  tag_out: 2 data_out: xxxxxxxxxxxxxxxxxxxxxxxxxxxxxxxx ,
# T: 4250 [Checker] CORRECT, port  3 with tag 2 data is 0 should be x
# T: 4250 [Generator] Making Test # 10
# T: 4250 [Transaction] port: 00 cmd: 0001 data_in_1: 17 data_in_2: 26 tag_in: 11
# T: 4250 [Transaction] port: 00 cmd: 0001 data_in_1: 96 data_in_2: 53 tag_in: 10
# T: 4250 [Transaction] port: 01 cmd: 0010 data_in_1: 54 data_in_2: 80 tag_in: 11
# T: 4250 [Transaction] port: 10 cmd: 0010 data_in_1: 38 data_in_2: 60 tag_in: 11
# T: 4250 [Transaction] port: 11 cmd: 0110 data_in_1: 22 data_in_2: 43 tag_in: 11
# T: 4250 [Transaction] port: 11 cmd: 0110 data_in_1: 95 data_in_2: 68 tag_in: 10
# Current coverage is 0.00
# T: 4250 [Driver] Driver Reseting DUT
# [Scoreboard] cmd: 1 data1: 17 data2: 26
# [Scoreboard] cmd: 1 data1: 96 data2: 53
# [Scoreboard] cmd: 2 data1: 54 data2: 80
# [Scoreboard] can't subtract 80 from 54
# [Scoreboard] cmd: 2 data1: 38 data2: 60
# [Scoreboard] can't subtract 60 from 38
# [Scoreboard] cmd: 6 data1: 22 data2: 43
# [Scoreboard] cmd: 6 data1: 95 data2: 68
# T: 4250 [Checker] Recieved transaction from Scoreboard
# T: 4250 [Transaction] port: 00 tag_out: 11
# T: 4250 [Checker] Recieved transaction from Scoreboard
# T: 4250 [Transaction] port: 00 tag_out: 10
# T: 4250 [Checker] Recieved transaction from Scoreboard
# T: 4250 [Transaction] port: 01 tag_out: 11
# T: 4250 [Checker] Recieved transaction from Scoreboard
# T: 4250 [Transaction] port: 10 tag_out: 11
# T: 4250 [Checker] Recieved transaction from Scoreboard
# T: 4250 [Transaction] port: 11 tag_out: 11
# T: 4250 [Checker] Recieved transaction from Scoreboard
# T: 4250 [Transaction] port: 11 tag_out: 10
# T: 4250 [Monitor] watching port Two
# T: 4250 [Monitor] watching port one
# T: 4600 [Driver] receiving transaction from Generator
# T: 4600 [Driver] port: 00 cmd: 0001 Data1: 17 Data2: 26 Tag: 11
# T: 4600 [Driver] receiving transaction from Generator
# T: 4600 [Driver] port: 00 cmd: 0001 Data1: 96 Data2: 53 Tag: 10
# T: 4600 [Driver] receiving transaction from Generator
# T: 4600 [Driver] port: 01 cmd: 0010 Data1: 54 Data2: 80 Tag: 11
# T: 4600 [Driver] receiving transaction from Generator
# T: 4600 [Driver] port: 10 cmd: 0010 Data1: 38 Data2: 60 Tag: 11
# T: 4600 [Driver] receiving transaction from Generator
# T: 4600 [Driver] port: 11 cmd: 0110 Data1: 22 Data2: 43 Tag: 11
# T: 4600 [Driver] receiving transaction from Generator
# T: 4600 [Driver] port: 11 cmd: 0110 Data1: 95 Data2: 68 Tag: 10
# T: 4650 [Driver] Driving set of commands
# T: 4650 [Monitor] seeing new transaction on port 4 with tag: 3
# T: 4650 [Monitor] seeing new transaction on port Two with Tag : 3
# T: 4650 [Monitor] seeing new transaction on port Tag total trans: 3
# T: 4750 [Driver] LOOP
# T: 4850 [Transaction] port: 11 cmd: 0110 data_in_1: 22 data_in_2: 43 tag_in: 11
# T: 4850 [Monitor] seeing new transaction on port R
# T: 4850 [Transaction] port: 10 cmd: 0010 data_in_1: 38 data_in_2: 60 tag_in: 11
# T: 4850 [Transaction] port: 01 cmd: 0010 data_in_1: 54 data_in_2: 80 tag_in: 11
# T: 4850 [Monitor] watching port Two
# T: 4850 [Transaction] port: 00 cmd: 0001 data_in_1: 17 data_in_2: 26 tag_in: 11
# T: 4850 [Monitor] watching port one
# T: 4850 [Driver] Driving set of commands
# T: 4850 [Monitor] seeing new transaction on port 4 with tag: 2
# T: 4850 [Monitor] seeing new transaction on port Tag total trans: 2
# T: 4950 [Driver] LOOP
# T: 5050 [Transaction] port: 11 cmd: 0110 data_in_1: 95 data_in_2: 68 tag_in: 10
# T: 5050 [Transaction] port: 00 cmd: 0001 data_in_1: 96 data_in_2: 53 tag_in: 10
# T: 5050 [Monitor] watching port one
# T: 5050 [Monitor]Port Four Response Asserted 1
# T: 5050 [Monitor] received response on port 4
# T: 5050 [Monitor]Port One Response Asserted 1
# T: 5050 [Driver] Driving set of commands
# T: 5050 [Checker] Recieved transaction from Monitor
# T: 5050 [Transaction] port: 11 tag_out: 11
# T: 5050 [Checker] Recieved transaction from Monitor
# T: 5050 [Transaction] port: 00 tag_out: 11
# T: 5150 [Monitor]Port Two Response Asserted 1
