ProjectTwo_extendedGen/transcript
# vsim -do {run -all} -c -novopt Top 
# //  Questa Sim-64
# //  Version 10.1e linux_x86_64 Jun 11 2013
# //
# //  Copyright 1991-2013 Mentor Graphics Corporation
# //  All Rights Reserved.
# //
# //  THIS WORK CONTAINS TRADE SECRET AND PROPRIETARY INFORMATION
# //  WHICH IS THE PROPERTY OF MENTOR GRAPHICS CORPORATION OR ITS
# //  LICENSORS AND IS SUBJECT TO LICENSE TERMS.
# //
# Refreshing /nfs/home/e/e_mcneil/COEN413/ProjectTwo_extendedGen/work.Top
# Loading sv_std.std
# Loading work.Top
# Refreshing /nfs/home/e/e_mcneil/COEN413/ProjectTwo_extendedGen/work.dut_IF
# Loading work.dut_IF
# Refreshing /nfs/home/e/e_mcneil/COEN413/ProjectTwo_extendedGen/work.calc2_top
# Loading work.calc2_top
# Refreshing /nfs/home/e/e_mcneil/COEN413/ProjectTwo_extendedGen/work.adder
# Loading work.adder
# Refreshing /nfs/home/e/e_mcneil/COEN413/ProjectTwo_extendedGen/work.alu_input_stage
# Loading work.alu_input_stage
# Refreshing /nfs/home/e/e_mcneil/COEN413/ProjectTwo_extendedGen/work.alu_output_stage
# Loading work.alu_output_stage
# Refreshing /nfs/home/e/e_mcneil/COEN413/ProjectTwo_extendedGen/work.holdreg
# Loading work.holdreg
# Refreshing /nfs/home/e/e_mcneil/COEN413/ProjectTwo_extendedGen/work.mux_out
# Loading work.mux_out
# Refreshing /nfs/home/e/e_mcneil/COEN413/ProjectTwo_extendedGen/work.priority
# Loading work.priority
# Refreshing /nfs/home/e/e_mcneil/COEN413/ProjectTwo_extendedGen/work.shifter
# Loading work.shifter
# Refreshing /nfs/home/e/e_mcneil/COEN413/ProjectTwo_extendedGen/work.test
# Refreshing /nfs/home/e/e_mcneil/COEN413/ProjectTwo_extendedGen/work.classes
# Loading work.classes
# ** Warning: (vsim-PLI-3691) classPackage.sv(918): Expected a system task, not a system function '$fgets'.
#         Region: /classes::Generator::run
# ** Warning: (vsim-PLI-3691) classPackage.sv(923): Expected a system task, not a system function '$fgets'.
#         Region: /classes::Generator::run
# Loading work.test
# ** Warning: (vsim-8441) classPackage.sv(407): Clocking block output IF.cb.req1_cmd_in is not legal in this
# or another expression.
#         Region: /classes
# ** Warning: (vsim-8441) classPackage.sv(408): Clocking block output IF.cb.req1_data_in is not legal in this
# or another expression.
#         Region: /classes
# ** Warning: (vsim-8441) classPackage.sv(399): Clocking block output IF.cb.req1_tag_in is not legal in this
# or another expression.
#         Region: /classes
# ** Warning: (vsim-8441) classPackage.sv(433): Clocking block output IF.cb.req2_cmd_in is not legal in this
# or another expression.
#         Region: /classes
# ** Warning: (vsim-8441) classPackage.sv(434): Clocking block output IF.cb.req2_data_in is not legal in this
# or another expression.
#         Region: /classes
# ** Warning: (vsim-8441) classPackage.sv(425): Clocking block output IF.cb.req2_tag_in is not legal in this
# or another expression.
#         Region: /classes
# ** Warning: (vsim-8441) classPackage.sv(458): Clocking block output IF.cb.req3_cmd_in is not legal in this
# or another expression.
#         Region: /classes
# ** Warning: (vsim-8441) classPackage.sv(459): Clocking block output IF.cb.req3_data_in is not legal in this
# or another expression.
#         Region: /classes
# ** Warning: (vsim-8441) classPackage.sv(450): Clocking block output IF.cb.req3_tag_in is not legal in this
# or another expression.
#         Region: /classes
# ** Warning: (vsim-8441) classPackage.sv(485): Clocking block output IF.cb.req4_cmd_in is not legal in this
# or another expression.
#         Region: /classes
# ** Warning: (vsim-8441) classPackage.sv(486): Clocking block output IF.cb.req4_data_in is not legal in this
# or another expression.
#         Region: /classes
# ** Warning: (vsim-8441) classPackage.sv(477): Clocking block output IF.cb.req4_tag_in is not legal in this
# or another expression.
#         Region: /classes
# ** Warning: (vsim-8441) classPackage.sv(93): Clocking block output #parent#.IF.cb.req1_cmd_in is not legal in this
# or another expression.
#         Region: /classes
# ** Warning: (vsim-8441) classPackage.sv(97): Clocking block output #parent#.IF.cb.req1_data_in is not legal in this
# or another expression.
#         Region: /classes
# ** Warning: (vsim-8441) classPackage.sv(101): Clocking block output #parent#.IF.cb.req1_tag_in is not legal in this
# or another expression.
#         Region: /classes
# ** Warning: (vsim-8441) classPackage.sv(94): Clocking block output #parent#.IF.cb.req2_cmd_in is not legal in this
# or another expression.
#         Region: /classes
# ** Warning: (vsim-8441) classPackage.sv(98): Clocking block output #parent#.IF.cb.req2_data_in is not legal in this
# or another expression.
#         Region: /classes
# ** Warning: (vsim-8441) classPackage.sv(102): Clocking block output #parent#.IF.cb.req2_tag_in is not legal in this
# or another expression.
#         Region: /classes
# ** Warning: (vsim-8441) classPackage.sv(95): Clocking block output #parent#.IF.cb.req3_cmd_in is not legal in this
# or another expression.
#         Region: /classes
# ** Warning: (vsim-8441) classPackage.sv(99): Clocking block output #parent#.IF.cb.req3_data_in is not legal in this
# or another expression.
#         Region: /classes
# ** Warning: (vsim-8441) classPackage.sv(103): Clocking block output #parent#.IF.cb.req3_tag_in is not legal in this
# or another expression.
#         Region: /classes
# ** Warning: (vsim-8441) classPackage.sv(96): Clocking block output #parent#.IF.cb.req4_cmd_in is not legal in this
# or another expression.
#         Region: /classes
# ** Warning: (vsim-8441) classPackage.sv(100): Clocking block output #parent#.IF.cb.req4_data_in is not legal in this
# or another expression.
#         Region: /classes
# ** Warning: (vsim-8441) classPackage.sv(104): Clocking block output #parent#.IF.cb.req4_tag_in is not legal in this
# or another expression.
#         Region: /classes
# ** Warning: (vsim-8441) classPackage.sv(93): Clocking block output #parent#.IF.cb.req1_cmd_in is not legal in this
# or another expression.
#         Region: /classes
# ** Warning: (vsim-8441) classPackage.sv(97): Clocking block output #parent#.IF.cb.req1_data_in is not legal in this
# or another expression.
#         Region: /classes
# ** Warning: (vsim-8441) classPackage.sv(101): Clocking block output #parent#.IF.cb.req1_tag_in is not legal in this
# or another expression.
#         Region: /classes
# ** Warning: (vsim-8441) classPackage.sv(94): Clocking block output #parent#.IF.cb.req2_cmd_in is not legal in this
# or another expression.
#         Region: /classes
# ** Warning: (vsim-8441) classPackage.sv(98): Clocking block output #parent#.IF.cb.req2_data_in is not legal in this
# or another expression.
#         Region: /classes
# ** Warning: (vsim-8441) classPackage.sv(102): Clocking block output #parent#.IF.cb.req2_tag_in is not legal in this
# or another expression.
#         Region: /classes
# ** Warning: (vsim-8441) classPackage.sv(95): Clocking block output #parent#.IF.cb.req3_cmd_in is not legal in this
# or another expression.
#         Region: /classes
# ** Warning: (vsim-8441) classPackage.sv(99): Clocking block output #parent#.IF.cb.req3_data_in is not legal in this
# or another expression.
#         Region: /classes
# ** Warning: (vsim-8441) classPackage.sv(103): Clocking block output #parent#.IF.cb.req3_tag_in is not legal in this
# or another expression.
#         Region: /classes
# ** Warning: (vsim-8441) classPackage.sv(96): Clocking block output #parent#.IF.cb.req4_cmd_in is not legal in this
# or another expression.
#         Region: /classes
# ** Warning: (vsim-8441) classPackage.sv(100): Clocking block output #parent#.IF.cb.req4_data_in is not legal in this
# or another expression.
#         Region: /classes
# ** Warning: (vsim-8441) classPackage.sv(104): Clocking block output #parent#.IF.cb.req4_tag_in is not legal in this
# or another expression.
#         Region: /classes
# ** Warning: (vsim-3017) top.sv(16): [TFMPC] - Too few port connections. Expected 30, found 26.
#         Region: /Top/DUT
# ** Warning: (vsim-3722) top.sv(16): [TFMPC] - Missing connection for port 'scan_out'.
# ** Warning: (vsim-3722) top.sv(16): [TFMPC] - Missing connection for port 'a_clk'.
# ** Warning: (vsim-3722) top.sv(16): [TFMPC] - Missing connection for port 'b_clk'.
# ** Warning: (vsim-3722) top.sv(16): [TFMPC] - Missing connection for port 'scan_in'.
# ** Warning: (vsim-3017) calc2_top.v(275): [TFMPC] - Too few port connections. Expected 41, found 40.
#         Region: /Top/DUT/priority1
# run -all 
# Top is running
# T: 0 [Monitor] starting...
# T: 0 [Monitor] watching port one
# T: 0 [Monitor] watching port Two
# T: 0 [Driver] starting...
# T: 0 [Generator] Running 10 random scenerio
# T: 0 [Generator] Making Test # 0
# T: 0 [Transaction] port: 00 cmd: 0010 data_in_1: 83 data_in_2: 81 tag_in: 11
# T: 0 [Transaction] port: 00 cmd: 0101 data_in_1: 40 data_in_2: 58 tag_in: 10
# T: 0 [Transaction] port: 01 cmd: 0001 data_in_1: 82 data_in_2: 21 tag_in: 11
# T: 0 [Transaction] port: 01 cmd: 0110 data_in_1: 96 data_in_2: 22 tag_in: 10
# T: 0 [Transaction] port: 01 cmd: 0001 data_in_1: 90 data_in_2: 79 tag_in: 01
# T: 0 [Transaction] port: 10 cmd: 0110 data_in_1: 33 data_in_2: 21 tag_in: 11
# T: 0 [Transaction] port: 10 cmd: 0010 data_in_1: 2 data_in_2: 6 tag_in: 10
# T: 0 [Transaction] port: 10 cmd: 0101 data_in_1: 30 data_in_2: 33 tag_in: 01
# T: 0 [Transaction] port: 10 cmd: 0001 data_in_1: 79 data_in_2: 75 tag_in: 00
# T: 0 [Transaction] port: 11 cmd: 0001 data_in_1: 38 data_in_2: 75 tag_in: 11
# [Scoreboard] cmd: 2 data1: 83 data2: 81
# T: 0 [Scoreboard] expected answer 2
# [Scoreboard] cmd: 5 data1: 40 data2: 58
# T: 0 [Scoreboard] expected answer 0
# [Scoreboard] cmd: 1 data1: 82 data2: 21
# T: 0 [Scoreboard] expected answer 103
# [Scoreboard] cmd: 6 data1: 96 data2: 22
# T: 0 [Scoreboard] expected answer 0
# [Scoreboard] cmd: 1 data1: 90 data2: 79
# T: 0 [Scoreboard] expected answer 169
# [Scoreboard] cmd: 6 data1: 33 data2: 21
# T: 0 [Scoreboard] expected answer 0
# [Scoreboard] cmd: 2 data1: 2 data2: 6
# [Scoreboard] cmd: 5 data1: 30 data2: 33
# [Scoreboard] cmd: 1 data1: 79 data2: 75
# [Scoreboard] cmd: 1 data1: 38 data2: 75
# T: 0 [Checker] Recieved transaction from Scoreboard
# T: 0 [Transaction] port: 00 tag_out: 11
# T: 0 [Checker] Recieved transaction from Scoreboard
# T: 0 [Transaction] port: 00 tag_out: 10
# T: 0 [Checker] Recieved transaction from Scoreboard
# T: 0 [Transaction] port: 01 tag_out: 11
# T: 0 [Checker] Recieved transaction from Scoreboard
# T: 0 [Transaction] port: 01 tag_out: 10
# T: 0 [Checker] Recieved transaction from Scoreboard
# T: 0 [Transaction] port: 01 tag_out: 01
# T: 0 [Checker] Recieved transaction from Scoreboard
# T: 0 [Transaction] port: 10 tag_out: 11
# T: 0 [Checker] Recieved transaction from Scoreboard
# T: 0 [Transaction] port: 10 tag_out: 10
# T: 0 [Checker] Recieved transaction from Scoreboard
# T: 0 [Transaction] port: 10 tag_out: 01
# T: 0 [Checker] Recieved transaction from Scoreboard
# T: 0 [Transaction] port: 10 tag_out: 00
# T: 0 [Checker] Recieved transaction from Scoreboard
# T: 0 [Transaction] port: 11 tag_out: 11
# T: 0 [Driver] Driver Reseting DUT
# T: 0 [Monitor] watching port Two
# T: 0 [Monitor] watching port one
# T: 350 [Driver] receiving transaction from Generator
# T: 350 [Driver] port: 00 cmd: 0010 Data1: 83 Data2: 81 Tag: 11
# T: 350 [Driver] receiving transaction from Generator
# T: 350 [Driver] port: 00 cmd: 0101 Data1: 40 Data2: 58 Tag: 10
# T: 350 [Driver] receiving transaction from Generator
# T: 350 [Driver] port: 01 cmd: 0001 Data1: 82 Data2: 21 Tag: 11
# T: 350 [Driver] receiving transaction from Generator
# T: 350 [Driver] port: 01 cmd: 0110 Data1: 96 Data2: 22 Tag: 10
# T: 350 [Driver] receiving transaction from Generator
# T: 350 [Driver] port: 01 cmd: 0001 Data1: 90 Data2: 79 Tag: 01
# T: 350 [Driver] receiving transaction from Generator
# T: 350 [Driver] port: 10 cmd: 0110 Data1: 33 Data2: 21 Tag: 11
# T: 350 [Driver] receiving transaction from Generator
# T: 350 [Driver] port: 10 cmd: 0010 Data1: 2 Data2: 6 Tag: 10
# T: 350 [Driver] receiving transaction from Generator
# T: 350 [Driver] port: 10 cmd: 0101 Data1: 30 Data2: 33 Tag: 01
# T: 350 [Driver] receiving transaction from Generator
# T: 350 [Driver] port: 10 cmd: 0001 Data1: 79 Data2: 75 Tag: 00
# T: 350 [Driver] receiving transaction from Generator
# T: 350 [Driver] port: 11 cmd: 0001 Data1: 38 Data2: 75 Tag: 11
# T: 450 [Driver] Driving set of commands
# T: 450 [Monitor] seeing new transaction on port 4 with tag: 3
# T: 450 [Monitor] seeing new transaction on port Two with Tag : 3
# T: 450 [Monitor] seeing new transaction on port Tag total trans: 3
# T: 550 [Driver] LOOP
# T: 650 [Transaction] port: 11 cmd: 0001 data_in_1: 38 data_in_2: 75 tag_in: 11
# T: 650 [Monitor] seeing new transaction on port R
# T: 650 [Transaction] port: 10 cmd: 0110 data_in_1: 33 data_in_2: 21 tag_in: 11
# T: 650 [Transaction] port: 01 cmd: 0001 data_in_1: 82 data_in_2: 21 tag_in: 11
# T: 650 [Monitor] watching port Two
# T: 650 [Transaction] port: 00 cmd: 0010 data_in_1: 83 data_in_2: 81 tag_in: 11
# T: 650 [Monitor] watching port one
# T: 650 [Driver] Driving set of commands
# T: 650 [Monitor] seeing new transaction on port Two with Tag : 2
# T: 650 [Monitor] seeing new transaction on port Tag total trans: 2
# T: 750 [Driver] LOOP
# T: 850 [Monitor] seeing new transaction on port R
# T: 850 [Transaction] port: 10 cmd: 0010 data_in_1: 2 data_in_2: 6 tag_in: 10
# T: 850 [Transaction] port: 01 cmd: 0110 data_in_1: 96 data_in_2: 22 tag_in: 10
# T: 850 [Monitor] watching port Two
# T: 850 [Transaction] port: 00 cmd: 0101 data_in_1: 40 data_in_2: 58 tag_in: 10
# T: 850 [Monitor] watching port one
# T: 850 [Monitor]Port Three Response Asserted 1
# T: 850 [Monitor] received response on port 3
# T: 850 [Monitor]Port One Response Asserted 1
# T: 850 [Driver] Driving set of commands
# T: 850 [Checker] Recieved transaction from Monitor
# T: 850 [Transaction] port: 10 tag_out: 11
# T: 850 [Checker] Recieved transaction from Monitor
# T: 850 [Transaction] port: 00 tag_out: 11
# T: 850 [Monitor] seeing new transaction on port Two with Tag : 1
# T: 950 [Monitor]Port Two Response Asserted 1
# T: 950 [Monitor] received response on port 2
# T: 950 [Driver] LOOP
# T: 950 [Checker] Recieved transaction from Monitor
# T: 950 [Transaction] port: 01 tag_out: 11
# T: 1050 [Monitor] seeing new transaction on port R
# T: 1050 [Transaction] port: 10 cmd: 0101 data_in_1: 30 data_in_2: 33 tag_in: 01
# T: 1050 [Transaction] port: 01 cmd: 0001 data_in_1: 90 data_in_2: 79 tag_in: 01
# T: 1050 [Monitor] watching port Two
# T: 1050 [Monitor]Port Four Response Asserted 1
# T: 1050 [Monitor] received response on port 4
# T: 1050 [Monitor]Port One Response Asserted 1
# T: 1050 [Driver] Driving set of commands
# T: 1050 [Checker] Recieved transaction from Monitor
# T: 1050 [Transaction] port: 11 tag_out: 11
# T: 1050 [Checker] Recieved transaction from Monitor
# T: 1050 [Transaction] port: 00 tag_out: 10
# T: 1150 [Monitor]Port Three Response Asserted 2
# T: 1150 [Monitor] received response on port 3
# T: 1150 [Monitor]Port Two Response Asserted 1
# T: 1150 [Monitor] received response on port 2
# T: 1150 [Driver] LOOP
# T: 1150 [Checker] Recieved transaction from Monitor
# T: 1150 [Transaction] port: 10 tag_out: 10
# T: 1150 [Checker] Recieved transaction from Monitor
# T: 1150 [Transaction] port: 01 tag_out: 10
# T: 1250 [Monitor] seeing new transaction on port R
# T: 1250 [Transaction] port: 10 cmd: 0001 data_in_1: 79 data_in_2: 75 tag_in: 00
# T: 1250 [Monitor]Port One Response Asserted 2
# T: 1250 [Monitor]Port One: ERROR Response Recieved with No matching command
# T: 1350 [Monitor]Port Four Response Asserted 1
# T: 1350 [Monitor]Port Two: ERROR Response Recieved with No matching command
# T: 1350 [Monitor]Port Two Response Asserted 2
# T: 1350 [Monitor]Port Two: ERROR Response Recieved with No matching command
# T: 1450 [Monitor]Port Three Response Asserted 1
# T: 1450 [Monitor]Port Two: ERROR Response Recieved with No matching command
# T: 1550 [Monitor]Port Four Response Asserted 1
# T: 1550 [Monitor]Port Two: ERROR Response Recieved with No matching command
# T: 1550 [Monitor]Port Three Response Asserted 2
# T: 1550 [Monitor] received response on port 3
# T: 1550 [Checker] Recieved transaction from Monitor
# T: 1550 [Transaction] port: 10 tag_out: 00
# 
# 
# T: 2150 [Coverage] Current total coverage is 60.94
# 
# 
# T: 2150 [Coverage] Port One:
# T: 2150 [Coverage] CMD coverage is 100.00
# T: 2150 [Coverage] TAG coverage is 75.00
# T: 2150 [Coverage] DATA coverage is 1.56
# 
# 
# T: 2150 [Coverage] Port Two:
# T: 2150 [Coverage] CMD coverage is 100.00
# T: 2150 [Coverage] TAG coverage is 100.00
# T: 2150 [Coverage] DATA coverage is 1.56
# 
# 
# T: 2150 [Coverage] Port Three:
# T: 2150 [Coverage] CMD coverage is 100.00
# T: 2150 [Coverage] TAG coverage is 100.00
# T: 2150 [Coverage] DATA coverage is 1.56
# 
# 
# T: 2150 [Coverage] Port Four:
# T: 2150 [Coverage] CMD coverage is 100.00
# T: 2150 [Coverage] TAG coverage is 50.00
# T: 2150 [Coverage] DATA coverage is 1.56
# T: 2150 [Driver] Drive done asserted
# 
# 
# T: 2150 [Monitor]Port Two Commands not responded to: 
# T: 2150 [Transaction] port: 01 cmd: 0001 data_in_1: 90 data_in_2: 79 tag_in: 01 , resp: xx  tag_out: x data_out: xxxxxxxxxxxxxxxxxxxxxxxxxxxxxxxx ,
# T: 2150 [Monitor]Port Three Commands not responded to: 
# T: 2150 [Transaction] port: 10 cmd: 0101 data_in_1: 30 data_in_2: 33 tag_in: 01 , resp: xx  tag_out: x data_out: xxxxxxxxxxxxxxxxxxxxxxxxxxxxxxxx ,
# [Checker] Transactions from scoreboard seen : 10 
# [Checker] Transactions from monitor seen : 8 
# [Checker] Running Comparison  : 8 
# 
# 
# [Checker] Monitor Transaction recieved:
# T: 2150 [Transaction] port: 10 cmd: 0110 data_in_1: 33 data_in_2: 21 tag_in: 11 , resp: 01  tag_out: 3 data_out: 00000000000000000000000000000000 ,
# T: 2150 [Checker] Comparing with Scoreboard reference:
# T: 2150 [Transaction] port: 10 cmd: 0110 data_in_1: 33 data_in_2: 21 tag_in: 11 , resp: 01  tag_out: 3 data_out: 00000000000000000000000000000000 ,
# [Checker] CORRECT,data is 0 should be 0
# [Checker]CORRECT, Resp is 1 should be 1
# 
# 
# [Checker] Monitor Transaction recieved:
# T: 2150 [Transaction] port: 00 cmd: 0010 data_in_1: 83 data_in_2: 81 tag_in: 11 , resp: 01  tag_out: 3 data_out: 00000000000000000000000000000000 ,
# T: 2150 [Checker] Comparing with Scoreboard reference:
# T: 2150 [Transaction] port: 00 cmd: 0010 data_in_1: 83 data_in_2: 81 tag_in: 11 , resp: 01  tag_out: 3 data_out: 00000000000000000000000000000010 ,
# [Checker]ERROR, data is 0 should be 2
# [Checker]CORRECT, Resp is 1 should be 1
# 
# 
# [Checker] Monitor Transaction recieved:
# T: 2150 [Transaction] port: 01 cmd: 0001 data_in_1: 82 data_in_2: 21 tag_in: 11 , resp: 01  tag_out: 3 data_out: 00000000000000000000000000101010 ,
# T: 2150 [Checker] Comparing with Scoreboard reference:
# T: 2150 [Transaction] port: 01 cmd: 0001 data_in_1: 82 data_in_2: 21 tag_in: 11 , resp: 01  tag_out: 3 data_out: 00000000000000000000000001100111 ,
# [Checker]ERROR, data is 42 should be 103
# [Checker]CORRECT, Resp is 1 should be 1
# 
# 
# [Checker] Monitor Transaction recieved:
# T: 2150 [Transaction] port: 11 cmd: 0001 data_in_1: 38 data_in_2: 75 tag_in: 11 , resp: 01  tag_out: 3 data_out: 00000000000000000000000010010110 ,
# T: 2150 [Checker] Comparing with Scoreboard reference:
# T: 2150 [Transaction] port: 11 cmd: 0001 data_in_1: 38 data_in_2: 75 tag_in: 11 , resp: 01  tag_out: 3 data_out: 00000000000000000000000001110001 ,
# [Checker]ERROR, data is 150 should be 113
# [Checker]CORRECT, Resp is 1 should be 1
# 
# 
# [Checker] Monitor Transaction recieved:
# T: 2150 [Transaction] port: 00 cmd: 0101 data_in_1: 40 data_in_2: 58 tag_in: 10 , resp: 01  tag_out: 2 data_out: 11101000000000000000000000000000 ,
# T: 2150 [Checker] Comparing with Scoreboard reference:
# T: 2150 [Transaction] port: 00 cmd: 0101 data_in_1: 40 data_in_2: 58 tag_in: 10 , resp: 01  tag_out: 2 data_out: 00000000000000000000000000000000 ,
# [Checker]ERROR, data is 3892314112 should be 0
# [Checker]CORRECT, Resp is 1 should be 1
# 
# 
# [Checker] Monitor Transaction recieved:
# T: 2150 [Transaction] port: 10 cmd: 0010 data_in_1: 2 data_in_2: 6 tag_in: 10 , resp: 10  tag_out: 2 data_out: 00000000000000000000000000000000 ,
# T: 2150 [Checker] Comparing with Scoreboard reference:
# T: 2150 [Transaction] port: 10 cmd: 0010 data_in_1: 2 data_in_2: 6 tag_in: 10 , resp: 10  tag_out: 2 data_out: 00000000000000000000000000000000 ,
# [Checker] CORRECT,data is 0 should be 0
# [Checker]CORRECT, Resp is 2 should be 2
# 
# 
# [Checker] Monitor Transaction recieved:
# T: 2150 [Transaction] port: 01 cmd: 0110 data_in_1: 96 data_in_2: 22 tag_in: 10 , resp: 01  tag_out: 2 data_out: 00000000000000000000000000000000 ,
# T: 2150 [Checker] Comparing with Scoreboard reference:
# T: 2150 [Transaction] port: 01 cmd: 0110 data_in_1: 96 data_in_2: 22 tag_in: 10 , resp: 01  tag_out: 2 data_out: 00000000000000000000000000000000 ,
# [Checker] CORRECT,data is 0 should be 0
# [Checker]CORRECT, Resp is 1 should be 1
# 
# 
# [Checker] Monitor Transaction recieved:
# T: 2150 [Transaction] port: 10 cmd: 0001 data_in_1: 79 data_in_2: 75 tag_in: 00 , resp: 10  tag_out: 0 data_out: 00000000000000000000000000000000 ,
# T: 2150 [Checker] Comparing with Scoreboard reference:
# T: 2150 [Transaction] port: 10 cmd: 0001 data_in_1: 79 data_in_2: 75 tag_in: 00 , resp: 01  tag_out: 0 data_out: 00000000000000000000000010011010 ,
# [Checker]ERROR, data is 0 should be 154
# [Checker]ERROR, Resp is 2 should be 1
# T: 2150 [Generator] Making Test # 1
# T: 2150 [Transaction] port: 00 cmd: 0010 data_in_1: 71 data_in_2: 57 tag_in: 11
# T: 2150 [Transaction] port: 00 cmd: 0001 data_in_1: 88 data_in_2: 28 tag_in: 10
# T: 2150 [Transaction] port: 00 cmd: 0101 data_in_1: 18 data_in_2: 86 tag_in: 01
# T: 2150 [Transaction] port: 00 cmd: 0101 data_in_1: 73 data_in_2: 97 tag_in: 00
# T: 2150 [Transaction] port: 01 cmd: 0101 data_in_1: 37 data_in_2: 71 tag_in: 11
# T: 2150 [Transaction] port: 01 cmd: 0010 data_in_1: 28 data_in_2: 12 tag_in: 10
# T: 2150 [Transaction] port: 10 cmd: 0101 data_in_1: 48 data_in_2: 23 tag_in: 11
# T: 2150 [Transaction] port: 10 cmd: 0001 data_in_1: 29 data_in_2: 44 tag_in: 10
# T: 2150 [Transaction] port: 11 cmd: 0010 data_in_1: 47 data_in_2: 71 tag_in: 11
# T: 2150 [Transaction] port: 11 cmd: 0101 data_in_1: 11 data_in_2: 70 tag_in: 10
# T: 2150 [Driver] Driver Reseting DUT
# [Scoreboard] cmd: 2 data1: 71 data2: 57
# [Scoreboard] cmd: 1 data1: 88 data2: 28
# [Scoreboard] cmd: 5 data1: 18 data2: 86
# [Scoreboard] cmd: 5 data1: 73 data2: 97
# [Scoreboard] cmd: 5 data1: 37 data2: 71
# [Scoreboard] cmd: 2 data1: 28 data2: 12
# [Scoreboard] cmd: 5 data1: 48 data2: 23
# [Scoreboard] cmd: 1 data1: 29 data2: 44
# [Scoreboard] cmd: 2 data1: 47 data2: 71
# [Scoreboard] cmd: 5 data1: 11 data2: 70
# T: 2150 [Checker] Recieved transaction from Scoreboard
# T: 2150 [Transaction] port: 00 tag_out: 11
# T: 2150 [Checker] Recieved transaction from Scoreboard
# T: 2150 [Transaction] port: 00 tag_out: 10
# T: 2150 [Checker] Recieved transaction from Scoreboard
# T: 2150 [Transaction] port: 00 tag_out: 01
# T: 2150 [Checker] Recieved transaction from Scoreboard
# T: 2150 [Transaction] port: 00 tag_out: 00
# T: 2150 [Checker] Recieved transaction from Scoreboard
# T: 2150 [Transaction] port: 01 tag_out: 11
# T: 2150 [Checker] Recieved transaction from Scoreboard
# T: 2150 [Transaction] port: 01 tag_out: 10
# T: 2150 [Checker] Recieved transaction from Scoreboard
# T: 2150 [Transaction] port: 10 tag_out: 11
# T: 2150 [Checker] Recieved transaction from Scoreboard
# T: 2150 [Transaction] port: 10 tag_out: 10
# T: 2150 [Checker] Recieved transaction from Scoreboard
# T: 2150 [Transaction] port: 11 tag_out: 11
# T: 2150 [Checker] Recieved transaction from Scoreboard
# T: 2150 [Transaction] port: 11 tag_out: 10
# T: 2150 [Monitor] watching port Two
# T: 2150 [Monitor] watching port one
# T: 2500 [Driver] receiving transaction from Generator
# T: 2500 [Driver] port: 00 cmd: 0010 Data1: 71 Data2: 57 Tag: 11
# T: 2500 [Driver] receiving transaction from Generator
# T: 2500 [Driver] port: 00 cmd: 0001 Data1: 88 Data2: 28 Tag: 10
# T: 2500 [Driver] receiving transaction from Generator
# T: 2500 [Driver] port: 00 cmd: 0101 Data1: 18 Data2: 86 Tag: 01
# T: 2500 [Driver] receiving transaction from Generator
# T: 2500 [Driver] port: 00 cmd: 0101 Data1: 73 Data2: 97 Tag: 00
# T: 2500 [Driver] receiving transaction from Generator
# T: 2500 [Driver] port: 01 cmd: 0101 Data1: 37 Data2: 71 Tag: 11
# T: 2500 [Driver] receiving transaction from Generator
# T: 2500 [Driver] port: 01 cmd: 0010 Data1: 28 Data2: 12 Tag: 10
# T: 2500 [Driver] receiving transaction from Generator
# T: 2500 [Driver] port: 10 cmd: 0101 Data1: 48 Data2: 23 Tag: 11
# T: 2500 [Driver] receiving transaction from Generator
# T: 2500 [Driver] port: 10 cmd: 0001 Data1: 29 Data2: 44 Tag: 10
# T: 2500 [Driver] receiving transaction from Generator
# T: 2500 [Driver] port: 11 cmd: 0010 Data1: 47 Data2: 71 Tag: 11
# T: 2500 [Driver] receiving transaction from Generator
# T: 2500 [Driver] port: 11 cmd: 0101 Data1: 11 Data2: 70 Tag: 10
# T: 2550 [Driver] Driving set of commands
# T: 2550 [Monitor] seeing new transaction on port 4 with tag: 3
# T: 2550 [Monitor] seeing new transaction on port Two with Tag : 3
# T: 2550 [Monitor] seeing new transaction on port Tag total trans: 3
# T: 2650 [Driver] LOOP
# T: 2750 [Transaction] port: 11 cmd: 0010 data_in_1: 47 data_in_2: 71 tag_in: 11
# T: 2750 [Monitor] seeing new transaction on port R
# T: 2750 [Transaction] port: 10 cmd: 0101 data_in_1: 48 data_in_2: 23 tag_in: 11
# T: 2750 [Transaction] port: 01 cmd: 0101 data_in_1: 37 data_in_2: 71 tag_in: 11
# T: 2750 [Monitor] watching port Two
# T: 2750 [Transaction] port: 00 cmd: 0010 data_in_1: 71 data_in_2: 57 tag_in: 11
# T: 2750 [Monitor] watching port one
# T: 2750 [Driver] Driving set of commands
# T: 2750 [Monitor] seeing new transaction on port 4 with tag: 2
# T: 2750 [Monitor] seeing new transaction on port Two with Tag : 2
# T: 2750 [Monitor] seeing new transaction on port Tag total trans: 2
# T: 2850 [Driver] LOOP
# T: 2950 [Transaction] port: 11 cmd: 0101 data_in_1: 11 data_in_2: 70 tag_in: 10
# T: 2950 [Monitor] seeing new transaction on port R
# T: 2950 [Transaction] port: 10 cmd: 0001 data_in_1: 29 data_in_2: 44 tag_in: 10
# T: 2950 [Transaction] port: 01 cmd: 0010 data_in_1: 28 data_in_2: 12 tag_in: 10
# T: 2950 [Monitor] watching port Two
# T: 2950 [Transaction] port: 00 cmd: 0001 data_in_1: 88 data_in_2: 28 tag_in: 10
# T: 2950 [Monitor] watching port one
# T: 2950 [Monitor]Port Two Response Asserted 1
# T: 2950 [Monitor] received response on port 2
# T: 2950 [Monitor]Port One Response Asserted 1
# T: 2950 [Driver] Driving set of commands
# T: 2950 [Checker] Recieved transaction from Monitor
# T: 2950 [Transaction] port: 01 tag_out: 11
# T: 2950 [Checker] Recieved transaction from Monitor
# T: 2950 [Transaction] port: 00 tag_out: 11
# T: 2950 [Monitor] seeing new transaction on port Tag total trans: 1
# T: 3050 [Monitor]Port Four Response Asserted 1
# T: 3050 [Monitor] received response on port 4
# T: 3050 [Monitor]Port Three Response Asserted 1
# T: 3050 [Monitor] received response on port 3
# T: 3050 [Driver] LOOP
# T: 3050 [Checker] Recieved transaction from Monitor
# T: 3050 [Transaction] port: 11 tag_out: 11
# T: 3050 [Checker] Recieved transaction from Monitor
# T: 3050 [Transaction] port: 10 tag_out: 11
# T: 3150 [Transaction] port: 00 cmd: 0101 data_in_1: 18 data_in_2: 86 tag_in: 01
# T: 3150 [Monitor] watching port one
# T: 3150 [Monitor]Port Two Response Asserted 1
# T: 3150 [Monitor]Port Two: ERROR Response Recieved with No matching command
# T: 3150 [Monitor]Port One Response Asserted 1
# T: 3150 [Monitor]Port One: ERROR Response Recieved with No matching command
# T: 3150 [Driver] Driving set of commands
# T: 3150 [Monitor] seeing new transaction on port Tag total trans: 0
# T: 3250 [Monitor]Port Four Response Asserted 1
# T: 3250 [Monitor]Port Two: ERROR Response Recieved with No matching command
# T: 3250 [Monitor]Port Three Response Asserted 1
# T: 3250 [Monitor]Port Two: ERROR Response Recieved with No matching command
# T: 3250 [Monitor]Port Two Response Asserted 2
# T: 3250 [Monitor] received response on port 2
# T: 3250 [Monitor]Port One Response Asserted 2
# T: 3250 [Driver] LOOP
